// Jest Snapshot v1, https://goo.gl/fbAQLP

exports[`authenticator-email-verification-data should render form 1`] = `
<div>
  <div
    class="MuiScopedCssBaseline-root emotion-0"
  >
    <main
      class="auth-container main-container mainViewContainer MuiBox-root emotion-1"
      data-commit="b9bbc0140703c3fbf0e2e58920362e70"
      data-version="0.0.0"
      dir="ltr"
      id="okta-sign-in"
      lang="en"
    >
      <div
        class="siwContainer MuiBox-root emotion-2"
      >
        <div
          class="okta-sign-in-header auth-header siwHeader authCoinSpacing MuiBox-root emotion-3"
        >
          <h1
            class="MuiTypography-root MuiTypography-h1 emotion-4"
          />
          <div
            aria-hidden="true"
            class="iconContainer mfa-okta-email authCoinOverlay MuiBox-root emotion-5"
            data-se="factor-beacon"
          >
            <svg
              aria-labelledby="mfa-okta-email"
              fill="none"
              height="48"
              role="img"
              viewBox="0 0 48 48"
              width="48"
              xmlns="http://www.w3.org/2000/svg"
            >
              <title
                id="mfa-okta-email"
              >
                Email Authentication
              </title>
              <circle
                class="siwFillBg"
                cx="24"
                cy="24"
                fill="#F5F5F6"
                r="24"
              />
              <path
                class="siwFillSecondary"
                d="M32 18v1h5.3L32 24.29v1.42l6-6.01v12.8a1.5 1.5 0 0 1-1.5 1.5h-17a1.5 1.5 0 0 1-1.5-1.5V31h-1v1.5a2.5 2.5 0 0 0 2.5 2.5h17a2.5 2.5 0 0 0 2.5-2.5V18h-7Z"
                fill="#A7B5EC"
              />
              <path
                class="siwFillPrimaryDark"
                d="M9 13v14.5a2.5 2.5 0 0 0 2.5 2.5h17a2.5 2.5 0 0 0 2.5-2.5V13H9Zm20.293 1-8.81 8.81L10.794 14h18.499ZM28.5 29h-17a1.5 1.5 0 0 1-1.5-1.5V14.63l10.517 9.56L30 14.707V27.5a1.5 1.5 0 0 1-1.5 1.5Z"
                fill="#00297A"
              />
            </svg>
          </div>
        </div>
        <div
          class="MuiBox-root emotion-6"
        >
          <div
            class="identifier-container MuiBox-root emotion-7"
          >
            <div
              class="identifierContainer MuiBox-root emotion-8"
            >
              <span
                class="userIconContainer MuiBox-root emotion-9"
              >
                <svg
                  class="MuiSvgIcon-root MuiSvgIcon-fontSizeInherit emotion-10"
                  fill="none"
                  focusable="false"
                  role="img"
                  viewBox="0 0 16 16"
                  xmlns="http://www.w3.org/2000/svg"
                >
                  <path
                    clip-rule="evenodd"
                    d="M10 3V5C10 6.10457 9.10457 7 8 7C6.89543 7 6 6.10457 6 5V3C6 1.89543 6.89543 1 8 1C9.10457 1 10 1.89543 10 3ZM5 3C5 1.34315 6.34315 0 8 0C9.65685 0 11 1.34315 11 3V5C11 6.65685 9.65685 8 8 8C6.34315 8 5 6.65685 5 5V3ZM4.1305 10.0742C4.26803 10.0181 4.459 10 5.41376 10H10.5862C11.541 10 11.732 10.0181 11.8695 10.0742C12.0299 10.1398 12.1706 10.2459 12.2777 10.3821C12.3695 10.4989 12.4393 10.6776 12.7016 11.5956L13.6743 15H2.32573L3.29841 11.5956C3.5607 10.6776 3.63054 10.4989 3.72233 10.3821C3.82941 10.2459 3.97006 10.1398 4.1305 10.0742ZM13.6631 11.3209L14.7143 15L15 16H13.96H2.04002H1L1.28571 15L2.33689 11.3209C2.57458 10.489 2.69343 10.073 2.93606 9.76423C3.15022 9.49171 3.43152 9.27953 3.75239 9.14848C4.11592 9 4.54854 9 5.41376 9H10.5862C11.4515 9 11.8841 9 12.2476 9.14848C12.5685 9.27953 12.8498 9.49171 13.0639 9.76423C13.3066 10.073 13.4254 10.489 13.6631 11.3209Z"
                    fill="currentColor"
                    fill-rule="evenodd"
                  />
                  <title>
                    User
                  </title>
                </svg>
              </span>
              <span
                class="identifier no-translate identifierSpan MuiBox-root emotion-9"
                data-se="identifier"
                title="tester@okta1.com"
              >
                tester@okta1.com
              </span>
            </div>
          </div>
          <form
            class="o-form siwForm"
            data-se="o-form"
            novalidate=""
          >
            <div
              class="MuiBox-root emotion-12"
            >
              <div
                class="MuiBox-root emotion-13"
              >
                <div
                  class="MuiBox-root emotion-14"
                >
                  <h2
                    class="MuiTypography-root MuiTypography-h4 emotion-15"
                    data-se="o-form-head"
                    id="authenticator-verification-data_Title_Get_a_verification_email_okta_email_1"
                    tabindex="-1"
                  >
                    Get a verification email
                  </h2>
                </div>
              </div>
              <div
                class="MuiBox-root emotion-13"
              >
                <div
                  class="MuiBox-root emotion-14"
                >
                  <p
                    class="MuiTypography-root MuiTypography-body1 MuiTypography-paragraph emotion-18"
                    data-se="o-form-explain"
                    id="authenticator-verification-data_Description_Send_a_verification_email_by_clicking_on_Send_me_an_email_okta_email_2"
                  >
                    Send a verification email by clicking on "Send me an email".
                  </p>
                </div>
              </div>
              <div
                class="MuiBox-root emotion-13"
              >
                <button
                  class="MuiButtonBase-root MuiButton-root MuiButton-primary MuiButton-primaryPrimary MuiButton-sizeMedium MuiButton-primarySizeMedium MuiButton-disableElevation MuiButton-fullWidth MuiButton-root MuiButton-primary MuiButton-primaryPrimary MuiButton-sizeMedium MuiButton-primarySizeMedium MuiButton-disableElevation MuiButton-fullWidth emotion-20"
                  data-type="save"
                  tabindex="0"
                  type="submit"
                >
                  Send me an email
                </button>
              </div>
              <div
                class="MuiBox-root emotion-13"
              >
                <button
                  class="MuiTypography-root MuiTypography-body1 MuiLink-root MuiLink-underlineAlways MuiLink-button emotion-22"
                  data-se="cancel"
                  role="link"
                >
                  Back to sign in
                </button>
              </div>
            </div>
          </form>
        </div>
      </div>
    </main>
  </div>
</div>
`;
