// Jest Snapshot v1, https://goo.gl/fbAQLP

exports[`oda-enrollment-ios should render form 1`] = `
<div>
  <div
    class="MuiScopedCssBaseline-root emotion-0"
  >
    <main
      class="auth-container main-container mainViewContainer MuiBox-root emotion-1"
      data-commit="b9bbc0140703c3fbf0e2e58920362e70"
      data-version="0.0.0"
      dir="ltr"
      id="okta-sign-in"
      lang="en"
    >
      <div
        class="siwContainer MuiBox-root emotion-2"
      >
        <div
          class="okta-sign-in-header auth-header siwHeader authCoinSpacing MuiBox-root emotion-3"
        >
          <h1
            class="MuiTypography-root MuiTypography-h1 emotion-4"
          />
          <div
            aria-hidden="true"
            class="iconContainer mfa-okta-verify authCoinOverlay MuiBox-root emotion-5"
            data-se="factor-beacon"
          >
            <svg
              aria-labelledby="mfa-okta-verify"
              fill="none"
              height="48"
              role="img"
              viewBox="0 0 48 48"
              width="48"
              xmlns="http://www.w3.org/2000/svg"
            >
              <title
                id="mfa-okta-verify"
              >
                Okta Verify
              </title>
              <circle
                class="siwFillBg"
                cx="24"
                cy="24"
                fill="#F5F5F6"
                r="24"
              />
              <path
                clip-rule="evenodd"
                d="M32.872 22.853a8.947 8.947 0 1 1-2.288-4.91L24 24.498l-3.205-3.19c-.482-.48-1.322-.48-1.804 0a1.26 1.26 0 0 0-.374.898c0 .34.133.659.374.898l4.107 4.09c.24.239.561.371.902.371.336 0 .664-.136.902-.372L38.636 13.52a18.089 18.089 0 0 0-1.634-1.967A17.947 17.947 0 0 0 24 6C14.059 6 6 14.059 6 24s8.059 18 18 18 18-8.059 18-18c0-2.972-.722-5.775-1.998-8.245l-7.13 7.098Z"
                fill="#00297A"
                fill-rule="evenodd"
              />
            </svg>
          </div>
        </div>
        <div
          class="MuiBox-root emotion-6"
        >
          <form
            class="o-form siwForm"
            data-se="o-form"
            novalidate=""
          >
            <div
              class="MuiBox-root emotion-7"
            >
              <div
                class="MuiBox-root emotion-8"
              >
                <div
                  class="MuiBox-root emotion-9"
                >
                  <h2
                    class="MuiTypography-root MuiTypography-h4 emotion-10"
                    data-se="o-form-head"
                    tabindex="-1"
                  >
                    Download Okta Verify
                  </h2>
                </div>
              </div>
              <div
                class="MuiBox-root emotion-8"
              >
                <div
                  class="MuiBox-root emotion-9"
                >
                  <p
                    class="MuiTypography-root MuiTypography-body1 MuiTypography-paragraph emotion-13"
                    data-se="o-form-explain"
                  >
                    To sign in using Okta Verify, you will need to set up Okta Verify on this device.
                  </p>
                </div>
              </div>
              <div
                class="MuiBox-root emotion-14"
              >
                <div
                  class="MuiBox-root emotion-15"
                >
                  <ol
                    class="MuiList-root MuiList-padding emotion-16"
                  >
                    <li
                      class="MuiListItem-root emotion-17"
                    >
                      <div
                        class="MuiBox-root emotion-7"
                      >
                        <div
                          class="MuiBox-root emotion-14"
                        >
                          <div
                            class="MuiBox-root emotion-9"
                          >
                            <p
                              class="MuiTypography-root MuiTypography-body1 MuiTypography-paragraph emotion-13"
                              data-se="o-form-explain"
                            >
                              Tap the Copy Link button below.
                            </p>
                          </div>
                        </div>
                        <div
                          class="MuiBox-root emotion-8"
                        >
                          <button
                            class="MuiButtonBase-root MuiButton-root MuiButton-secondary MuiButton-secondaryPrimary MuiButton-sizeMedium MuiButton-secondarySizeMedium MuiButton-disableElevation MuiButton-fullWidth MuiButton-root MuiButton-secondary MuiButton-secondaryPrimary MuiButton-sizeMedium MuiButton-secondarySizeMedium MuiButton-disableElevation MuiButton-fullWidth emotion-23"
                            tabindex="0"
                            type="button"
                          >
                            Copy link to clipboard
                          </button>
                        </div>
                      </div>
                    </li>
                    <li
                      class="MuiListItem-root emotion-17"
                    >
                      <div
                        class="MuiBox-root emotion-7"
                      >
                        <div
                          class="MuiBox-root emotion-14"
                        >
                          <div
                            class="MuiBox-root emotion-9"
                          >
                            <p
                              class="MuiTypography-root MuiTypography-body1 MuiTypography-paragraph emotion-13"
                              data-se="o-form-explain"
                            >
                              On this device, open your browser, then paste the copied link into the address bar.
                            </p>
                          </div>
                        </div>
                      </div>
                    </li>
                    <li
                      class="MuiListItem-root emotion-17"
                    >
                      <div
                        class="MuiBox-root emotion-7"
                      >
                        <div
                          class="MuiBox-root emotion-14"
                        >
                          <div
                            class="MuiBox-root emotion-9"
                          >
                            <p
                              class="MuiTypography-root MuiTypography-body1 MuiTypography-paragraph emotion-13"
                              data-se="o-form-explain"
                            >
                              Download the Okta Verify app.
                            </p>
                          </div>
                        </div>
                      </div>
                    </li>
                    <li
                      class="MuiListItem-root emotion-17"
                    >
                      <div
                        class="MuiBox-root emotion-7"
                      >
                        <div
                          class="MuiBox-root emotion-14"
                        >
                          <div
                            class="MuiBox-root emotion-9"
                          >
                            <p
                              class="MuiTypography-root MuiTypography-body1 MuiTypography-paragraph emotion-13"
                              data-se="o-form-explain"
                            >
                              Open Okta Verify and follow the steps to add your account.
                            </p>
                          </div>
                        </div>
                      </div>
                    </li>
                    <li
                      class="MuiListItem-root emotion-17"
                    >
                      <div
                        class="MuiBox-root emotion-7"
                      >
                        <div
                          class="MuiBox-root emotion-14"
                        >
                          <div
                            class="MuiBox-root emotion-9"
                          >
                            <p
                              class="MuiTypography-root MuiTypography-body1 MuiTypography-paragraph emotion-13"
                              data-se="o-form-explain"
                            >
                              When prompted, choose Sign In, then enter the sign-in URL:
                            </p>
                          </div>
                        </div>
                        <div
                          class="MuiBox-root emotion-14"
                        >
                          <div
                            class="MuiBox-root emotion-9"
                          >
                            <p
                              class="MuiTypography-root MuiTypography-body1 MuiTypography-paragraph emotion-13"
                              data-se="o-form-explain"
                            >
                              <span
                                class="no-translate"
                              >
                                https://idx.okta1.com
                              </span>
                            </p>
                          </div>
                        </div>
                        <div
                          class="MuiBox-root emotion-8"
                        >
                          <button
                            class="MuiButtonBase-root MuiButton-root MuiButton-secondary MuiButton-secondaryPrimary MuiButton-sizeMedium MuiButton-secondarySizeMedium MuiButton-disableElevation MuiButton-fullWidth MuiButton-root MuiButton-secondary MuiButton-secondaryPrimary MuiButton-sizeMedium MuiButton-secondarySizeMedium MuiButton-disableElevation MuiButton-fullWidth emotion-23"
                            tabindex="0"
                            type="button"
                          >
                            Copy sign-in URL to clipboard
                          </button>
                        </div>
                      </div>
                    </li>
                    <li
                      class="MuiListItem-root emotion-17"
                    >
                      <div
                        class="MuiBox-root emotion-7"
                      >
                        <div
                          class="MuiBox-root emotion-14"
                        >
                          <div
                            class="MuiBox-root emotion-9"
                          >
                            <p
                              class="MuiTypography-root MuiTypography-body1 MuiTypography-paragraph emotion-13"
                              data-se="o-form-explain"
                            >
                              Finish setting up your account in Okta Verify, then try accessing this app again.
                            </p>
                          </div>
                        </div>
                      </div>
                    </li>
                  </ol>
                </div>
              </div>
            </div>
          </form>
        </div>
      </div>
    </main>
  </div>
</div>
`;
